<?xml version="1.0" encoding="UTF-8"?>
<svg width="60px" height="54px" viewBox="0 0 60 54" version="1.1" xmlns="http://www.w3.org/2000/svg" xmlns:xlink="http://www.w3.org/1999/xlink">
    <!-- Generator: Sketch 49.3 (51167) - http://www.bohemiancoding.com/sketch -->
    <title>Extra space seats</title>
    <desc>Created with Sketch.</desc>
    <defs>
        <path d="M59.925,29.25 C59.625,26.55 57.975,24.3 55.575,23.175 L49.425,9.375 C48,6.15 44.25,3.75 40.725,3.75 L30,3.75 L19.05,3.75 C15.525,3.75 11.775,6.15 10.35,9.375 L4.125,23.25 C1.875,24.375 -3.55271368e-15,26.55 -3.55271368e-15,29.175 L-3.55271368e-15,44.925 C-3.55271368e-15,46.95 1.5,48.675 3.75,48.675 L6,48.675 L6,50.925 C6.225,53.85 8.625,56.175 11.625,56.175 C14.625,56.175 17.025,53.85 17.25,50.925 L17.25,48.675 L42.75,48.675 L42.75,50.925 C42.975,53.85 45.375,56.175 48.375,56.175 C51.375,56.175 53.775,53.85 54,50.925 L54,48.675 L56.25,48.675 C57.75,48.675 60,47.025 60,44.925 L59.925,29.25 Z M17.25,12.45 C17.475,11.925 18.525,11.25 19.125,11.25 L30,11.25 L40.725,11.25 C41.325,11.25 42.3,11.925 42.6,12.45 L47.1,22.5 L12.675,22.5 L17.25,12.45 Z M15,37.5 L11.25,37.5 C9.15,37.5 7.5,35.85 7.5,33.75 C7.5,31.65 9.15,30 11.25,30 L15,30 C17.1,30 18.75,31.65 18.75,33.75 C18.75,35.85 17.1,37.5 15,37.5 Z M48.75,37.5 L45,37.5 C42.9,37.5 41.25,35.85 41.25,33.75 C41.25,31.65 42.9,30 45,30 L48.75,30 C50.85,30 52.5,31.65 52.5,33.75 C52.5,35.85 50.85,37.5 48.75,37.5 Z" id="path-1"></path>
    </defs>
    <g id="Page-1" stroke="none" stroke-width="1" fill="none" fill-rule="evenodd">
        <g id="Summary-page-V3---Desktop" transform="translate(-988.000000, -2174.000000)">
            <g id="Your-transfers" transform="translate(0.000000, 1874.000000)">
                <g id="Group-11" transform="translate(179.000000, 280.000000)">
                    <g id="Group-6" transform="translate(678.000000, 0.000000)">
                        <g id="01-Atoms/Icons/Car" transform="translate(131.000000, 17.000000)">
                            <mask id="mask-2" fill="white">
                                <use xlink:href="#path-1"></use>
                            </mask>
                            <use id="Mask" fill="#092A5E" fill-rule="nonzero" xlink:href="#path-1"></use>
                            <g id="01-Atoms/Fills/Brand-Colours/TUI-Dark-Blue" mask="url(#mask-2)" fill="#092A5E" fill-rule="evenodd">
                                <rect id="Fill" x="0" y="0" width="60" height="60"></rect>
                            </g>
                        </g>
                    </g>
                </g>
            </g>
        </g>
    </g>
</svg>