<?xml version="1.0" encoding="UTF-8"?>
<svg width="120px" height="120px" viewBox="0 0 120 120" version="1.1" xmlns="http://www.w3.org/2000/svg" xmlns:xlink="http://www.w3.org/1999/xlink">
    <!-- Generator: Sketch 61.2 (89653) - https://sketch.com -->
    <title>Visa</title>
    <desc>Created with Sketch.</desc>
    <defs>
        <rect id="path-1" x="0" y="0" width="121" height="53"></rect>
    </defs>
    <g id="Visa" stroke="none" stroke-width="1" fill="none" fill-rule="evenodd">
        <g transform="translate(-1.000000, 34.000000)" id="*Global-Footer/Payment/Logo/Visa">
            <g>
                <mask id="mask-2" fill="white">
                    <use xlink:href="#path-1"></use>
                </mask>
                <g id="Mask"></g>
                <g id="Logo" stroke-width="1" fill-rule="evenodd" mask="url(#mask-2)">
                    <g transform="translate(0.000000, 7.571429)">
                        <g id="registered" stroke-width="1" fill="none" transform="translate(115.739130, 31.602484)">
                            <path d="M0.306610869,2.16440119 C0.306610869,1.08886908 1.17788088,0.217202232 2.25197113,0.217202232 C3.3279658,0.217202232 4.1973314,1.08886908 4.1973314,2.16440119 C4.1973314,3.23898065 3.3279658,4.11160014 2.25197113,4.11160014 C1.17788088,4.11160014 0.306610869,3.23898065 0.306610869,2.16440119 L0.306610869,2.16440119 Z M2.25197113,3.64290059 C3.07086973,3.64290059 3.73170185,2.98081484 3.73170185,2.16440119 C3.73170185,1.34512961 3.07086973,0.684949143 2.25197113,0.684949143 C1.43688137,0.684949143 0.775097041,1.34512961 0.775097041,2.16440119 C0.775097041,2.98081484 1.43688137,3.64290059 2.25197113,3.64290059 L2.25197113,3.64290059 Z M1.99011402,3.01796785 L1.59209122,3.01796785 L1.59209122,1.3079766 L2.31386463,1.3079766 C2.46431344,1.3079766 2.61666667,1.30988188 2.74997574,1.39371432 C2.88804585,1.49088374 2.96612688,1.65188013 2.96612688,1.82145029 C2.96612688,2.01674177 2.85471859,2.19774363 2.67189471,2.26442853 L2.98421883,3.01796785 L2.54144226,3.01796785 L2.28244178,2.34063984 L1.99011402,2.34063984 L1.99011402,3.01796785 L1.99011402,3.01796785 Z M1.99011402,2.04817894 L2.20912179,2.04817894 C2.29196385,2.04817894 2.38051917,2.05580007 2.45288695,2.01674177 C2.51858928,1.97387291 2.55286876,1.89385104 2.55286876,1.81763973 C2.55286876,1.7547654 2.51287603,1.67855409 2.45669578,1.64521164 C2.38623241,1.60424806 2.27577632,1.61282183 2.20150413,1.61282183 L1.99011402,1.61282183 L1.99011402,2.04817894 L1.99011402,2.04817894 Z" fill="#0161AB"></path>
                        </g>
                        <path d="M107.995549,0 L115.523784,35.9286249 L106.888952,35.9286249 L105.78696,30.5929172 L93.8308021,30.5929172 L91.8708517,35.9286249 L82.0695652,35.9286249 L96.0931097,2.67625051 C96.0931097,2.67625051 96.9449283,0 100.436617,0 L100.436617,0 L107.995549,0 Z M101.481822,9.77220736 L96.5412737,23.2206333 L104.262895,23.2206333 L101.481822,9.77220736 Z" id="a" fill="#0066B2"></path>
                        <path d="M82.5384153,9.28214665 L83.8813727,1.56636225 C83.8813727,1.56636225 79.7389248,0 75.4230435,0 C70.7556911,0 59.6728396,2.02894291 59.6728396,11.8942771 C59.6728396,21.1779504 72.6818757,21.2939772 72.6818757,26.1655776 C72.6818757,31.0402312 61.0142622,30.17003 57.161893,27.0953189 L55.7652174,35.1607105 C55.7652174,35.1607105 59.9629184,37.19118 66.3814872,37.19118 C72.7969863,37.19118 82.4816274,33.8844153 82.4816274,24.8908091 C82.4816274,15.5491223 69.3559459,14.6773944 69.3559459,10.6164552 C69.3559459,6.55398941 78.5156825,7.07611016 82.5384153,9.28214665" id="s" fill="#0066B2"></path>
                        <polyline id="i" fill="#0066B2" points="49.3863798 35.9286249 39.9826087 35.9286249 45.8593901 0 55.2662308 0 49.3863798 35.9286249"></polyline>
                        <path d="M13.9590825,7.57685754 C20.3906732,12.7555568 22.5524542,19.1872514 22.6184396,19.3869775 L22.6200064,19.3902212 L23.6820938,24.7121888 L32.6469097,0 L42.7689712,0 L27.806124,35.9286249 L18.0079071,35.9286249 L9.83965672,4.71435343 C5.20122438,1.94365109 1.15397249,0.878746633 0.208160489,0.654684633 C1.42873287,0.943036477 7.81191507,2.6283433 13.9590825,7.57685754 Z" id="v" fill="#0066B2"></path>
                        <path d="M22.6200064,19.3917478 L19.4552314,3.23501131 C19.4552314,3.23501131 19.0745989,0 14.9950782,0 L0.17343335,0 L0,0.607614205 C0.00153480841,0.607614205 7.12611545,2.07626965 13.9590825,7.57685754 C20.4927619,12.8377584 22.6200064,19.3917478 22.6200064,19.3917478" id="shape" fill="#F9A533"></path>
                    </g>
                </g>
            </g>
        </g>
    </g>
</svg>