<svg xmlns="http://www.w3.org/2000/svg" xmlns:xlink="http://www.w3.org/1999/xlink" width="24" height="25" viewBox="0 0 24 25">
    <defs>
        <path id="a" d="M2.36 22.04V1.96h9.06v5.142c0 .541.439.98.98.98h5.142V22.04H2.36zM13.38 3.346l2.777 2.777H13.38V3.345zm6.122 3.762v-.005a.973.973 0 0 0-.074-.37l-.001-.005a.95.95 0 0 0-.083-.155l-.008-.014-.001-.004a.997.997 0 0 0-.12-.145L13.092.287a.971.971 0 0 0-.145-.12l-.003-.001c-.015-.01-.033-.017-.049-.027-.038-.022-.077-.046-.12-.063-.02-.01-.043-.013-.064-.02-.039-.014-.077-.028-.118-.036A.964.964 0 0 0 12.4 0H1.38A.98.98 0 0 0 .4.98v22.04c0 .541.44.98.98.98h17.142a.98.98 0 0 0 .98-.98V7.107z"/>
    </defs>
    <g fill="none" fill-rule="evenodd" transform="translate(2 .112)">
        <mask id="b" fill="#fff">
            <use xlink:href="#a"/>
        </mask>
        <use fill="#082A5E" xlink:href="#a"/>
        <g fill="#092A5E" mask="url(#b)">
            <path d="M-2 0h24v24H-2z"/>
        </g>
    </g>
</svg>
