<?xml version="1.0" encoding="UTF-8"?>
<svg width="43px" height="46px" viewBox="0 0 43 46" version="1.1" xmlns="http://www.w3.org/2000/svg" xmlns:xlink="http://www.w3.org/1999/xlink">
    <!-- Generator: Sketch 55.2 (78181) - https://sketchapp.com -->
    <title>Group Copy</title>
    <desc>Created with Sketch.</desc>
    <g id="Nordics-Premium-Club-Icon" stroke="none" stroke-width="1" fill="none" fill-rule="evenodd">
        <g id="Desktop---Flights---Seats-component" transform="translate(-266.000000, -763.000000)" fill-rule="nonzero">
            <g id="Group-Copy" transform="translate(266.000000, 763.000000)">
                <path d="M25.2954545,42.244898 L30.5454545,42.244898 C31.5954545,42.244898 32.4545455,43.0897959 32.4545455,44.122449 C32.4545455,45.155102 31.5954545,46 30.5454545,46 L16.2272727,46 C15.1772727,46 14.3181818,45.155102 14.3181818,44.122449 C14.3181818,43.0897959 15.1772727,42.244898 16.2272727,42.244898 L21.4772727,42.244898 L21.4772727,36.6122449 L16.7045455,36.6122449 C14.7954545,36.6122449 13.0295455,35.6734694 11.9795455,34.1244898 L1.00227273,18.1653061 C0.334090909,17.2265306 0,16.1469388 0,15.0204082 L0,5.63265306 C0,2.53469388 2.57727273,0 5.72727273,0 C8.87727273,0 11.4545455,2.53469388 11.4545455,5.63265306 L11.4545455,13.2836735 L15.225,18.7755102 L31.9772727,18.7755102 C33.0272727,18.7755102 33.8863636,19.6204082 33.8863636,20.6530612 C33.8863636,21.6857143 33.0272727,22.5306122 31.9772727,22.5306122 L17.8022727,22.5306122 L19.7590909,25.3469388 L36.2727273,25.3469388 C39.4227273,25.3469388 42,27.8816327 42,30.9795918 C42,34.077551 39.4227273,36.6122449 36.2727273,36.6122449 L25.2954545,36.6122449 L25.2954545,42.244898 L25.2954545,42.244898 Z M10.5954545,18.7755102 L7.63636364,14.4571429 L7.63636364,5.63265306 C7.63636364,4.6 6.77727273,3.75510204 5.72727273,3.75510204 C4.67727273,3.75510204 3.81818182,4.6 3.81818182,5.63265306 L3.81818182,15.0204082 C3.81818182,15.3959184 3.91363636,15.7714286 4.15227273,16.0530612 L6.01363636,18.7755102 L10.5954545,18.7755102 L10.5954545,18.7755102 Z M13.2204545,22.5306122 L8.59090909,22.5306122 L15.1295455,32.0122449 C15.4636364,32.5285714 16.0840909,32.8571429 16.7045455,32.8571429 L36.2727273,32.8571429 C37.3227273,32.8571429 38.1818182,32.0122449 38.1818182,30.9795918 C38.1818182,29.9469388 37.3227273,29.1020408 36.2727273,29.1020408 L17.7068182,29.1020408 L13.2204545,22.5306122 Z" id="Shape" fill="#082A5E"></path>
                <path d="M35.4403704,13.9279012 C35.1232482,14.1425142 34.6702164,13.8420559 34.8061259,13.4986751 L35.8027959,10.6228608 L33.1752115,8.82011155 C32.8580893,8.60549854 32.9939988,8.13334992 33.4017274,8.13334992 L36.6182531,8.13334992 L37.614923,5.25753561 C37.7508325,4.9141548 38.2944707,4.9141548 38.385077,5.25753561 L39.3817469,8.13334992 L42.5982726,8.13334992 C43.0060012,8.13334992 43.1419107,8.60549854 42.8247885,8.82011155 L40.2878105,10.6228608 L41.2844804,13.4986751 C41.42039,13.8420559 40.9673582,14.1425142 40.6502359,13.9279012 L38.0226516,12.1251519 L35.4403704,13.9279012 Z" id="Shape-Copy" fill="#219ED9"></path>
            </g>
        </g>
    </g>
</svg>