<?xml version="1.0" encoding="UTF-8"?>
<svg width="57px" height="51px" viewBox="0 0 57 51" version="1.1" xmlns="http://www.w3.org/2000/svg" xmlns:xlink="http://www.w3.org/1999/xlink">
    <!-- Generator: Sketch 49.1 (51147) - http://www.bohemiancoding.com/sketch -->
    <title>Large luggage pictogram</title>
    <desc>Created with Sketch.</desc>
    <defs></defs>
    <g id="Page-1" stroke="none" stroke-width="1" fill="none" fill-rule="evenodd">
        <g id="Desktop-V2" transform="translate(-1109.000000, -990.000000)">
            <g id="Flights-ancillaries" transform="translate(0.000000, 245.000000)">
                <g id="Group-3" transform="translate(179.000000, 713.000000)">
                    <g id="Group-12" transform="translate(103.000000, 21.000000)">
                        <g id="Group-15" transform="translate(657.000000, 11.000000)">
                            <g id="25KG-luggage-" transform="translate(162.000000, 0.000000)">
                                <g id="25kg-Flat" transform="translate(8.878378, 0.000000)">
                                    <g id="luggage-plus25kg">
                                        <path d="M46.0350877,35.4864532 L42.877193,35.4864532 L42.877193,32.6600985 C42.877193,31.6237685 41.9298246,30.7758621 40.7719298,30.7758621 C39.6140351,30.7758621 38.6666667,31.6237685 38.6666667,32.6600985 L38.6666667,35.4864532 L35.5087719,35.4864532 C34.3508772,35.4864532 33.4035088,36.3343596 33.4035088,37.3706897 C33.4035088,38.4070197 34.3508772,39.2549261 35.5087719,39.2549261 L38.6666667,39.2549261 L38.6666667,42.0812808 C38.6666667,43.1176108 39.6140351,43.9655172 40.7719298,43.9655172 C41.9298246,43.9655172 42.877193,43.1176108 42.877193,42.0812808 L42.877193,39.2549261 L46.0350877,39.2549261 C47.1929825,39.2549261 48.1403509,38.4070197 48.1403509,37.3706897 C48.1403509,36.3343596 47.1403509,35.4864532 46.0350877,35.4864532 Z" id="Shape" fill="#219ED9" fill-rule="nonzero"></path>
                                        <g id="Group">
                                            <path d="M45.8888889,45.853211 L46.3037037,45.853211 C47.1851852,45.853211 47.962963,45.3385321 48.2740741,44.6366972 C48.3259259,44.4963303 48.3777778,44.3559633 48.4296296,44.2623853 C47.6518519,44.8706422 46.8222222,45.4321101 45.8888889,45.853211 Z" id="Shape" fill="#082A5E" fill-rule="nonzero"></path>
                                            <g id="Shape">
                                                <path d="M35.2592593,20.1192661 L35.2592593,24.2834862 C36.9703704,23.6752294 38.8888889,23.3477064 40.8592593,23.3477064 C42.6740741,23.3477064 44.3851852,23.6284404 45.9407407,24.1431193 C45.6296296,22.7862385 45.2666667,21.4293578 44.8518519,20.166055 L35.2592593,20.166055 L35.2592593,20.1192661 Z"></path>
                                                <path d="M46.9777778,28.7752294 C45.2148148,27.6990826 43.0888889,27.0908257 40.8074074,27.0908257 C34.7407407,27.0908257 29.8148148,31.5357798 29.8148148,37.0100917 C29.8148148,42.4844037 34.7407407,46.9293578 40.8074074,46.9293578 C46.8740741,46.9293578 51.8,42.4844037 51.8,37.0100917 C51.8,35.3256881 51.3333333,33.6880734 50.5037037,32.2844037 C49.6740741,30.833945 48.4296296,29.6642202 46.9777778,28.7752294 Z"></path>
                                                <path d="M31.0074074,15.8146789 C30.8518519,13.9899083 30.5925926,12.1183486 30.1777778,10.433945 C29.1407407,6.1293578 27.4814815,3.74311927 25.4074074,3.74311927 C23.3333333,3.74311927 21.6740741,6.1293578 20.637037,10.433945 C20.2222222,12.1183486 19.962963,13.9431193 19.8074074,15.8146789 C19.8074074,16.0018349 19.7555556,16.1889908 19.7555556,16.3761468 L31.0074074,16.3761468 C31.0074074,16.1889908 31.0074074,16.0018349 31.0074074,15.8146789 Z"></path>
                                                <path d="M19.7037037,20.1192661 L19.7037037,42.1100917 L26.7555556,42.1100917 C26.0296296,40.5192661 25.6666667,38.7880734 25.6666667,37.0100917 C25.6666667,32.7990826 27.7925926,29.0091743 31.1111111,26.5293578 L31.1111111,20.1192661 L19.7037037,20.1192661 Z"></path>
                                                <path d="M4.14814815,31.1146789 C4.14814815,34.9513761 4.77037037,38.6944954 6.01481481,42.1100917 L15.5555556,42.1100917 L15.5555556,20.1192661 L6.01481481,20.1192661 C4.77037037,23.5348624 4.14814815,27.2779817 4.14814815,31.1146789 Z"></path>
                                                <path d="M50.5037037,26.4825688 C50.7111111,30.2880734 50.7975309,32.3623853 50.762963,32.7055046 C50.7111111,32.5651376 50.6074074,32.4247706 50.5037037,32.2844037 C51.3333333,33.6880734 51.8,35.2788991 51.8,37.0100917 C51.8,42.4844037 46.8740741,46.9293578 40.8074074,46.9293578 C34.7407407,46.9293578 29.8148148,42.4844037 29.8148148,37.0100917 C29.8148148,31.5357798 34.7407407,27.0440367 40.8592593,27.0440367 C43.1407407,27.0440367 45.8529396,28.0534772 47.6159025,29.1296239 C47.460347,29.036046 46.3037037,25.546789 45.9925926,24.0963303 C44.3851852,23.5816514 42.6740741,23.3009174 40.9111111,23.3009174 C38.9407407,23.3009174 36.9499319,23.4880734 35.1869689,24.0963303 L31.1111111,26.4825688 C27.7407407,29.0091743 25.6666667,32.7990826 25.6666667,37.0100917 C25.6666667,38.8348624 26.0814815,40.5192661 26.7555556,42.1100917 L31.1111111,42.1100917 L31.1111111,41.6889908 C32.1481481,43.4669725 33.8074074,44.9174312 35.7777778,45.853211 L29.2444444,45.853211 C32.0444444,48.8009174 36.1925926,50.6724771 40.8074074,50.6724771 C49.2074074,50.6724771 55.9481481,44.5431193 55.9481481,37.0100917 C56,32.7522936 53.8740741,28.9623853 50.5037037,26.4825688 Z" fill="#092A5E" fill-rule="nonzero"></path>
                                                <path d="M50.5037037,32.2376147 C49.6740741,30.833945 48.4296296,29.6174312 46.9777778,28.7284404 C48.4296296,29.6642202 49.6740741,30.833945 50.5037037,32.2376147 Z" fill="#082A5E" fill-rule="nonzero"></path>
                                                <path d="M31.1111111,41.6889908 L30.6745905,41.3525959 L26.7555556,42.1100917 L19.7037037,42.1100917 L19.7037037,20.1192661 L31.1111111,20.1192661 L31.1111111,26.4825688 L35.2592593,24.2366972 L35.2592593,20.1192661 L44.8,20.1192661 C45.2666667,21.4293578 45.6296296,22.7394495 45.8888889,24.0963303 C46.2,25.546789 46.4074074,26.9972477 46.5111111,28.4944954 C46.6666667,28.5880734 46.7703704,28.6816514 46.9259259,28.7284404 C48.3777778,29.6174312 49.6222222,30.833945 50.4518519,32.2376147 C50.5555556,32.4247706 50.7516837,32.7282312 50.8553874,32.8685981 C50.8553874,32.3539192 54.2553968,32.1212809 53.4996059,30.6236572 C52.7438151,29.1260335 50.7519095,28.0672971 50.5445021,26.5700494 C50.1815392,23.481976 49.3111111,20.4 48.1703704,17.6394495 C47.8592593,16.8908257 47.0814815,16.4229358 46.2,16.4229358 L35.2074074,16.4229358 C35.2074074,16.1422018 35.1555556,15.8614679 35.1555556,15.5807339 C35,13.5688073 34.6888889,11.5568807 34.2740741,9.6853211 C33.7037037,7.1587156 32.8222222,5.05321101 31.6814815,3.41559633 C30.1259259,1.26330275 28.0518519,-3.55271368e-15 25.4592593,-3.55271368e-15 C22.8666667,-3.55271368e-15 20.7407407,1.26330275 19.237037,3.41559633 C18.0962963,5.05321101 17.2148148,7.1587156 16.6444444,9.6853211 C16.1777778,11.5568807 15.9185185,13.5688073 15.762963,15.5807339 C15.762963,15.8614679 15.7111111,16.1422018 15.7111111,16.4229358 L4.51111111,16.4229358 C3.62962963,16.4229358 2.85185185,16.9376147 2.54074074,17.6394495 C0.881481481,21.8036697 0,26.3889908 0,31.1146789 C0,35.840367 0.881481481,40.4256881 2.54074074,44.6366972 C2.85185185,45.3853211 3.62962963,45.853211 4.51111111,45.853211 L29.8165005,45.853211 L35.7777778,45.853211 C33.8074074,44.9174312 32.1481481,43.4669725 31.1111111,41.6889908 Z M19.8074074,15.8146789 C19.962963,13.9899083 20.2222222,12.1183486 20.637037,10.433945 C21.6740741,6.1293578 23.3333333,3.74311927 25.4074074,3.74311927 C27.4814815,3.74311927 29.1407407,6.1293578 30.1777778,10.433945 C30.5925926,12.1183486 30.8518519,13.9431193 31.0074074,15.8146789 C31.0074074,16.0018349 31.0592593,16.1889908 31.0592593,16.3761468 L19.7555556,16.3761468 C19.8074074,16.1889908 19.8074074,16.0018349 19.8074074,15.8146789 Z M15.5555556,42.1100917 L6.01481481,42.1100917 C4.77037037,38.6944954 4.14814815,34.9513761 4.14814815,31.1146789 C4.14814815,27.2779817 4.77037037,23.5348624 6.01481481,20.1192661 L15.5555556,20.1192661 L15.5555556,42.1100917 Z" fill="#092A5E" fill-rule="nonzero"></path>
                                            </g>
                                        </g>
                                    </g>
                                </g>
                            </g>
                        </g>
                    </g>
                </g>
            </g>
        </g>
    </g>
</svg>