<?xml version="1.0" encoding="UTF-8"?>
<svg width="90px" height="80px" viewBox="0 0 90 80" version="1.1" xmlns="http://www.w3.org/2000/svg" xmlns:xlink="http://www.w3.org/1999/xlink">
    <!-- Generator: Sketch 47 (45396) - http://www.bohemiancoding.com/sketch -->
    <title>Premium seats</title>
    <desc>Created with Sketch.</desc>
    <defs></defs>
    <g id="Symbols" stroke="none" stroke-width="1" fill="none" fill-rule="evenodd">
        <g id="Premium-seats" fill-rule="nonzero">
            <g id="seat_premium" transform="translate(-1.000000, 6.000000)">
                <g id="Group">
                    <path d="M50.8661157,70.9484536 L59.153719,70.9484536 L62.1950413,70.9484536 L62.1950413,55.3092784 L49.6495868,55.3092784 C48.2809917,55.3092784 46.9123967,54.7752577 45.8479339,53.8597938 L45.7719008,53.7835052 L13.5338843,31.1257732 L13.3818182,31.0494845 C12.1652893,30.3628866 11.2528926,29.371134 10.7206612,28.0742268 L4.18181818,11.9010309 C3.57355372,10.4515464 3.57355372,8.77319588 4.18181818,7.32371134 C4.79008264,5.8742268 5.93057851,4.65360825 7.45123967,4.11958763 C8.13553719,3.81443299 8.89586777,3.66185567 9.65619835,3.66185567 C12.0892562,3.66185567 14.2942149,5.18762887 15.2066116,7.4 L21.061157,21.8185567 L51.5504132,43.3319588 L82.6479339,43.3319588 C85.9173554,43.3319588 88.6545455,46.0020619 88.6545455,49.3587629 C88.6545455,52.6391753 85.9933884,55.385567 82.6479339,55.385567 L62.3471074,55.385567 L62.3471074,70.9484536 L73.7520661,70.9484536 L73.7520661,70.9484536 L50.8661157,70.9484536 Z" id="Shape"></path>
                    <path d="M9.7322314,6.71340206 C10.7206612,6.71340206 11.9371901,7.24742268 12.4694215,8.5443299 L18.0198347,22.1237113 L18.7041322,23.8020619 L20.1487603,24.7938144 L49.1173554,45.2391753 L50.7140496,46.3835052 L52.614876,46.3835052 L82.8,46.3835052 C84.3966942,46.3835052 85.7652893,47.756701 85.7652893,49.3587629 C85.7652893,50.9608247 84.3966942,52.3340206 82.8,52.3340206 L65.3884298,52.3340206 L59.3057851,52.3340206 L59.153719,52.3340206 L49.6495868,52.3340206 C48.8132231,52.3340206 48.1289256,51.9525773 47.7487603,51.6474227 L47.5206612,51.4948454 L47.292562,51.342268 L15.3586777,28.8371134 L15.2066116,28.5319588 L14.9024793,28.3793814 C14.446281,28.1505155 13.9140496,27.6927835 13.6099174,26.9298969 L6.99504132,10.756701 C6.38677686,9.30721649 7.14710744,7.47628866 8.59173554,6.86597938 C8.97190083,6.78969072 9.35206612,6.71340206 9.7322314,6.71340206 L9.7322314,6.71340206 L9.7322314,6.71340206 Z M9.7322314,0.610309278 C8.59173554,0.610309278 7.45123967,0.839175258 6.3107438,1.29690722 C1.74876033,3.20412371 -0.532231405,8.46804124 1.36859504,13.1216495 L7.90743802,29.2185567 C8.74380165,31.2020619 10.1884298,32.8041237 11.9371901,33.7195876 L43.8710744,56.2247423 C45.4677686,57.5216495 47.4446281,58.3608247 49.6495868,58.3608247 L59.077686,58.3608247 L59.077686,67.8969072 L50.8661157,67.8969072 C49.1933884,67.8969072 47.8247934,69.2701031 47.8247934,70.9484536 C47.8247934,72.6268041 49.1933884,74 50.8661157,74 L73.7520661,74 C75.4247934,74 76.7933884,72.6268041 76.7933884,70.9484536 C76.7933884,69.2701031 75.4247934,67.8969072 73.7520661,67.8969072 L65.3884298,67.8969072 L65.3884298,58.3608247 L82.7239669,58.3608247 C87.6661157,58.3608247 91.7719008,54.3175258 91.7719008,49.2824742 C91.7719008,44.3237113 87.7421488,40.2041237 82.7239669,40.2041237 L52.614876,40.2041237 L23.646281,19.8350515 L18.0958678,6.2556701 C16.6512397,2.74639175 13.3057851,0.610309278 9.7322314,0.610309278 L9.7322314,0.610309278 Z" id="Shape" fill="#082A5E"></path>
                </g>
                <path d="M17.086743,30 L56.913257,30 C58.5695581,30 60,31.3170732 60,33 L60,33 C60,34.6097561 58.6448445,36 56.913257,36 L17.086743,36 C15.4304419,36 14,34.6829268 14,33 L14,33 C14,31.3902439 15.3551555,30 17.086743,30 Z" id="Shape" fill="#082A5E"></path>
                <path d="M64.1486297,17.8718243 C63.6095219,18.2533585 62.8393679,17.7192106 63.0704141,17.1087558 L64.7647529,11.996197 L60.2978596,8.79130942 C59.7587517,8.40977519 59.989798,7.57039986 60.6829366,7.57039986 L66.1510302,7.57039986 L67.8453691,2.45784108 C68.0764153,1.84738631 69.0006001,1.84738631 69.1546309,2.45784108 L70.8489698,7.57039986 L76.3170634,7.57039986 C77.010202,7.57039986 77.2412483,8.40977519 76.7021404,8.79130942 L72.3892779,11.996197 L74.0836167,17.1087558 C74.3146629,17.7192106 73.5445089,18.2533585 73.0054011,17.8718243 L68.5385077,14.6669367 L64.1486297,17.8718243 Z" id="Shape" fill="#219ED9"></path>
            </g>
        </g>
    </g>
</svg>