<?xml version="1.0" encoding="UTF-8"?>
<svg width="80px" height="80px" viewBox="0 0 80 80" version="1.1" xmlns="http://www.w3.org/2000/svg" xmlns:xlink="http://www.w3.org/1999/xlink">
    <!-- Generator: Sketch 47 (45396) - http://www.bohemiancoding.com/sketch -->
    <title>Extra space seats</title>
    <desc>Created with Sketch.</desc>
    <defs></defs>
    <g id="Symbols" stroke="none" stroke-width="1" fill="none" fill-rule="evenodd">
        <g id="Extra-space-seats" fill-rule="nonzero">
            <g id="seat_extra-space">
                <path d="M43.9659091,73.4693878 L53.0909091,73.4693878 C54.9159091,73.4693878 56.4090909,74.9387755 56.4090909,76.7346939 C56.4090909,78.5306122 54.9159091,80 53.0909091,80 L28.2045455,80 C26.3795455,80 24.8863636,78.5306122 24.8863636,76.7346939 C24.8863636,74.9387755 26.3795455,73.4693878 28.2045455,73.4693878 L37.3295455,73.4693878 L37.3295455,63.6734694 L29.0340909,63.6734694 C25.7159091,63.6734694 22.6465909,62.0408163 20.8215909,59.3469388 L1.74204545,31.5918367 C0.580681818,29.9591837 0,28.0816327 0,26.122449 L0,9.79591837 C0,4.40816327 4.47954545,0 9.95454545,0 C15.4295455,0 19.9090909,4.40816327 19.9090909,9.79591837 L19.9090909,23.1020408 L26.4625,32.6530612 L55.5795455,32.6530612 C57.4045455,32.6530612 58.8977273,34.122449 58.8977273,35.9183673 C58.8977273,37.7142857 57.4045455,39.1836735 55.5795455,39.1836735 L30.9420455,39.1836735 L34.3431818,44.0816327 L63.0454545,44.0816327 C68.5204545,44.0816327 73,48.4897959 73,53.877551 C73,59.2653061 68.5204545,63.6734694 63.0454545,63.6734694 L43.9659091,63.6734694 L43.9659091,73.4693878 L43.9659091,73.4693878 Z M18.4159091,32.6530612 L13.2727273,25.1428571 L13.2727273,9.79591837 C13.2727273,8 11.7795455,6.53061224 9.95454545,6.53061224 C8.12954545,6.53061224 6.63636364,8 6.63636364,9.79591837 L6.63636364,26.122449 C6.63636364,26.7755102 6.80227273,27.4285714 7.21704545,27.9183673 L10.4522727,32.6530612 L18.4159091,32.6530612 L18.4159091,32.6530612 Z M22.9784091,39.1836735 L14.9318182,39.1836735 L26.2965909,55.6734694 C26.8772727,56.5714286 27.9556818,57.1428571 29.0340909,57.1428571 L63.0454545,57.1428571 C64.8704545,57.1428571 66.3636364,55.6734694 66.3636364,53.877551 C66.3636364,52.0816327 64.8704545,50.6122449 63.0454545,50.6122449 L30.7761364,50.6122449 L22.9784091,39.1836735 Z" id="Shape" fill="#082A5E"></path>
                <path d="M71.2021958,29.7687386 C70.7923147,29.3848263 70.7923147,28.726691 71.2021958,28.2879342 C71.6120769,27.9040219 72.3147301,27.9040219 72.7831656,28.2879342 L79.6925892,34.7595978 C80.1024703,35.1435101 80.1024703,35.8016453 79.6925892,36.2404022 L72.7831656,42.7120658 C72.3732845,43.0959781 71.6706313,43.0959781 71.2021958,42.7120658 C70.7337603,42.3281536 70.7923147,41.6700183 71.2021958,41.2312614 L76.2378774,36.5146252 L65.1125343,36.5146252 C64.5269899,36.5146252 64,36.0758684 64,35.4725777 C64,34.869287 64.4684355,34.4305302 65.1125343,34.4305302 L76.2378774,34.4305302 L71.2021958,29.7687386 Z" id="Shape" fill="#219ED9"></path>
            </g>
        </g>
    </g>
</svg>