<?xml version="1.0" encoding="UTF-8"?>
<svg width="90px" height="80px" viewBox="0 0 90 80" version="1.1" xmlns="http://www.w3.org/2000/svg" xmlns:xlink="http://www.w3.org/1999/xlink">
    <!-- Generator: Sketch 47 (45396) - http://www.bohemiancoding.com/sketch -->
    <title>Select your seat</title>
    <desc>Created with Sketch.</desc>
    <defs>
        <path d="M12.4099091,15.1247403 L12.4287273,15.1042759 L17.769,15.1042759 L27.8334545,18.1547586 C30.8787273,18.1547586 33.6793636,20.9255172 34.5507273,23.7244138 C35.4212727,20.9255172 37.8103636,18.1547586 40.8548182,18.1547586 L49.7124545,15.1729655 C50.4976744,15.155095 53.6080209,15.059941 56.7913636,15.0754685 L56.7913636,0.135724138 L12.4099091,0.135724138 L12.4099091,15.1247403 L12.4099091,15.1247403 Z" id="path-1"></path>
    </defs>
    <g id="Symbols" stroke="none" stroke-width="1" fill="none" fill-rule="evenodd">
        <g id="Select-your-seat">
            <g id="Page-1" transform="translate(11.000000, 0.000000)">
                <g id="Group-3" transform="translate(12.000000, 0.000000)"></g>
                <path d="M62.8754963,55.5649 C62.8754963,55.7678091 62.7104476,55.9330818 62.5078134,55.9330818 L60.0263622,55.9330818 C59.823728,55.9330818 59.6578622,55.7678091 59.6578622,55.5649 L59.6578622,53.0800818 C59.6578622,52.8771727 59.823728,52.7119 60.0263622,52.7119 L62.5078134,52.7119 C62.7104476,52.7119 62.8754963,52.8771727 62.8754963,53.0800818 L62.8754963,55.5649 Z M37.6075085,72.4889909 L59.722411,72.4889909 L59.722411,68.6026273 L37.6075085,68.6026273 L37.6075085,72.4889909 Z M38.7228134,58.6969 C39.5055695,57.8983545 39.991728,56.8060818 39.991728,55.6041727 L39.991728,53.0449 C39.991728,51.8429909 39.5055695,50.7507182 38.7228134,49.9521727 L38.7228134,34.9303545 C38.7228134,33.5877182 39.5276305,32.4054455 40.6633622,31.8139 C41.821972,32.6689 43.2469476,33.1819 44.7879476,33.1819 L53.2724354,33.1819 C54.5658622,33.1819 55.7767646,32.8186273 56.8185329,32.1984455 C57.6298866,32.8497182 58.1691549,33.8356273 58.1691549,34.9303545 L58.1691549,49.0145364 C56.6363256,49.7108091 55.5610573,51.2563545 55.5610573,53.0449 L55.5610573,55.6041727 C55.5610573,57.3919 56.6363256,58.9382636 58.1691549,59.6345364 L58.1691549,61.7757182 C58.1691549,61.8837182 58.1470939,61.9859909 58.136472,62.0915364 L38.7554963,62.0915364 C38.7465085,61.9859909 38.7228134,61.8837182 38.7228134,61.7757182 L38.7228134,58.6969 Z M43.5500817,23.4889 C43.5500817,22.8384455 44.0811793,22.3066273 44.7307524,22.3066273 L53.3982646,22.3066273 C54.0478378,22.3066273 54.5797524,22.8384455 54.5797524,23.4889 L54.5797524,26.2723545 C54.5797524,26.9228091 54.0478378,27.4546273 53.3982646,27.4546273 L44.7307524,27.4546273 C44.0811793,27.4546273 43.5500817,26.9228091 43.5500817,26.2723545 L43.5500817,23.4889 Z M35.9120817,55.5649 C35.9120817,55.7678091 35.7462159,55.9330818 35.5443988,55.9330818 L33.0629476,55.9330818 C32.8603134,55.9330818 32.6944476,55.7678091 32.6944476,55.5649 L32.6944476,53.0800818 C32.6944476,52.8771727 32.8603134,52.7119 33.0629476,52.7119 L35.5443988,52.7119 C35.7462159,52.7119 35.9120817,52.8771727 35.9120817,53.0800818 L35.9120817,55.5649 Z M8.85878902,72.4889909 L31.0202646,72.4889909 L31.0202646,68.6026273 L8.85878902,68.6026273 L8.85878902,72.4889909 Z M10.1252524,58.6969 C10.9088256,57.8983545 11.3949841,56.8060818 11.3949841,55.6041727 L11.3949841,53.0449 C11.3949841,51.8429909 10.9088256,50.7507182 10.1252524,49.9521727 L10.1252524,34.9303545 C10.1252524,33.5877182 10.9300695,32.4054455 12.0658012,31.8139 C13.225228,32.6689 14.6493866,33.1819 16.1903866,33.1819 L24.6748744,33.1819 C25.9683012,33.1819 27.1792037,32.8186273 28.2201549,32.1984455 C29.0323256,32.8497182 29.572411,33.8356273 29.572411,34.9303545 L29.572411,50.2843545 C28.9645085,51.0428091 28.5976427,52.0025364 28.5976427,53.0449 L28.5976427,55.6041727 C28.5976427,56.6465364 28.9645085,57.6062636 29.572411,58.3647182 L29.572411,61.7757182 C29.572411,61.8837182 29.5487159,61.9859909 29.538911,62.0915364 L10.1587524,62.0915364 C10.1489476,61.9859909 10.1252524,61.8837182 10.1252524,61.7757182 L10.1252524,58.6969 Z M14.9525207,23.4889 C14.9525207,22.8384455 15.4836183,22.3066273 16.1331915,22.3066273 L24.8007037,22.3066273 C25.4502768,22.3066273 25.9821915,22.8384455 25.9821915,23.4889 L25.9821915,26.2723545 C25.9821915,26.9228091 25.4502768,27.4546273 24.8007037,27.4546273 L16.1331915,27.4546273 C15.4836183,27.4546273 14.9525207,26.9228091 14.9525207,26.2723545 L14.9525207,23.4889 Z M7.31452073,55.5649 C7.31452073,55.7678091 7.14865488,55.9330818 6.9468378,55.9330818 L4.46538659,55.9330818 C4.26275244,55.9330818 4.09688659,55.7678091 4.09688659,55.5649 L4.09688659,53.0800818 C4.09688659,52.8771727 4.26275244,52.7119 4.46538659,52.7119 L6.9468378,52.7119 C7.14865488,52.7119 7.31452073,52.8771727 7.31452073,53.0800818 L7.31452073,55.5649 Z M64.7057402,59.4520818 C66.0457402,58.6895364 66.9551427,57.2495364 66.9551427,55.6041727 L66.9551427,53.0449 C66.9551427,51.3995364 66.0457402,49.9595364 64.7057402,49.1969909 L64.7057402,34.9303545 C64.7057402,31.4596273 62.926972,28.3857182 60.2379841,26.5734455 C60.2453378,26.4449909 60.258411,26.3173545 60.258411,26.1864455 L60.258411,23.5404455 C60.258411,19.6933545 57.1143134,16.5458091 53.2724354,16.5458091 L44.7879476,16.5458091 C40.9460695,16.5458091 37.801972,19.6933545 37.801972,23.5404455 L37.801972,25.9164455 C36.3541183,26.6372636 35.099911,27.6951727 34.1463866,28.9879 C33.4543256,28.0478091 32.609472,27.2263545 31.6412402,26.5734455 C31.6477768,26.4449909 31.66085,26.3173545 31.66085,26.1864455 L31.66085,23.5404455 C31.66085,19.6933545 28.5167524,16.5458091 24.6748744,16.5458091 L16.1903866,16.5458091 C12.3485085,16.5458091 9.20441098,19.6933545 9.20441098,23.5404455 L9.20441098,25.9164455 C5.88791098,27.5667182 3.58866707,30.9883545 3.58866707,34.9303545 L3.58866707,48.7003545 C1.55170366,49.0930818 8.17073171e-05,50.8947182 8.17073171e-05,53.0449 L8.17073171e-05,55.6041727 C8.17073171e-05,57.7543545 1.55170366,59.5559909 3.58866707,59.9479 L3.58866707,61.7757182 C3.58866707,62.5096273 3.67364268,63.2239 3.82480122,63.9144455 C2.95706951,64.8831727 2.42270366,66.1554455 2.42270366,67.5504455 L2.42270366,73.5403545 C2.42270366,76.5430818 4.87637439,79.0000818 7.87503293,79.0000818 L32.1543622,79.0000818 C32.9207768,79.0000818 33.6504232,78.8372636 34.3130695,78.5492636 C34.9765329,78.8372636 35.7069963,79.0000818 36.473411,79.0000818 L60.7511061,79.0000818 C63.7505817,79.0000818 66.2042524,76.5430818 66.2042524,73.5403545 L66.2042524,67.5504455 C66.2042524,66.0130818 65.5579476,64.6205364 64.5268012,63.6264455 C64.6403744,63.0250818 64.7057402,62.4081727 64.7057402,61.7757182 L64.7057402,59.4520818 Z" id="Fill-4" fill="#00265F"></path>
                <mask id="mask-2" fill="white">
                    <use xlink:href="#path-1"></use>
                </mask>
                <g id="Clip-2"></g>
                <path d="M36.8915455,39.4568276 L52.2807273,39.4568276 L52.2807273,36.7249655 L36.8915455,36.7249655 L36.8915455,39.4568276 Z M16.8886364,39.4568276 L32.3089091,39.4568276 L32.3089091,36.7249655 L16.8886364,36.7249655 L16.8886364,39.4568276 Z M17.7698182,13.0576552 C17.7698182,12.1142069 18.3294545,11.2824828 19.1198182,10.8670345 C19.9257273,11.4686897 20.9173636,11.8286897 21.99,11.8286897 L27.8931818,11.8286897 C28.794,11.8286897 29.6359091,11.5737931 30.3608182,11.1376552 C30.9253636,11.5953103 31.3009091,12.288 31.3009091,13.0576552 L31.3009091,31.9266207 C31.3009091,32.0027586 31.2853636,32.0747586 31.2788182,32.1484138 L17.7927273,32.1484138 C17.7853636,32.0747586 17.7698182,32.0027586 17.7698182,31.9266207 L17.7698182,13.0576552 Z M21.1284545,5.016 C21.1284545,4.55834483 21.4982727,4.18510345 21.9499091,4.18510345 L27.9815455,4.18510345 C28.4331818,4.18510345 28.803,4.55834483 28.803,5.016 L28.803,6.97241379 C28.803,7.42924138 28.4331818,7.80331034 27.9815455,7.80331034 L21.9499091,7.80331034 C21.4982727,7.80331034 21.1284545,7.42924138 21.1284545,6.97241379 L21.1284545,5.016 Z M37.6688182,13.0576552 C37.6688182,12.1142069 38.2292727,11.2824828 39.0188182,10.8670345 C39.8255455,11.4686897 40.8171818,11.8286897 41.889,11.8286897 L47.793,11.8286897 C48.693,11.8286897 49.5349091,11.5737931 50.2606364,11.1376552 C50.8251818,11.5953103 51.2007273,12.288 51.2007273,13.0576552 L51.2007273,31.9266207 C51.2007273,32.0027586 51.1851818,32.0747586 51.1778182,32.1484138 L37.6917273,32.1484138 C37.6851818,32.0747586 37.6688182,32.0027586 37.6688182,31.9266207 L37.6688182,13.0576552 Z M41.0282727,5.016 C41.0282727,4.55834483 41.3972727,4.18510345 41.8489091,4.18510345 L47.8805455,4.18510345 C48.3321818,4.18510345 48.702,4.55834483 48.702,5.016 L48.702,6.97241379 C48.702,7.42924138 48.3321818,7.80331034 47.8805455,7.80331034 L41.8489091,7.80331034 C41.3972727,7.80331034 41.0282727,7.42924138 41.0282727,6.97241379 L41.0282727,5.016 Z M55.6246364,33.2275862 C55.7031818,32.8055172 55.749,32.3710345 55.749,31.9266207 L55.749,13.0576552 C55.749,10.617931 54.5110909,8.45710345 52.6399091,7.18427586 C52.6456364,7.09324138 52.6538182,7.00386207 52.6538182,6.912 L52.6538182,5.05241379 C52.6538182,2.34786207 50.4668182,0.135724138 47.793,0.135724138 L41.889,0.135724138 C39.216,0.135724138 37.0281818,2.34786207 37.0281818,5.05241379 L37.0281818,6.72248276 C36.0193636,7.22896552 35.1586364,7.98455172 34.4950909,8.89406897 C34.0115455,8.22786207 33.42,7.64606897 32.7409091,7.18427586 C32.7458182,7.09324138 32.7548182,7.00386207 32.7548182,6.912 L32.7548182,5.05241379 C32.7548182,2.34786207 30.567,0.135724138 27.8931818,0.135724138 L21.99,0.135724138 C19.3161818,0.135724138 17.1291818,2.34786207 17.1291818,5.05241379 L17.1291818,6.72248276 C14.8210909,7.88193103 13.2215455,10.2868966 13.2215455,13.0576552 L13.2215455,31.9266207 C13.2215455,32.4430345 13.2804545,32.9453793 13.3851818,33.4303448 C12.7813636,34.1106207 12.4099091,35.006069 12.4099091,35.985931 L12.4099091,40.1958621 C12.4099091,42.3062069 14.1166364,44.0342069 16.2038182,44.0342069 L33.0984545,44.0342069 C33.6310909,44.0342069 34.1391818,43.9175172 34.6006364,43.7147586 C35.0629091,43.9175172 35.5693636,44.0342069 36.1028182,44.0342069 L52.9966364,44.0342069 C55.0838182,44.0342069 56.7913636,42.3062069 56.7913636,40.1958621 L56.7913636,35.985931 C56.7913636,34.9051034 56.3413636,33.9268966 55.6246364,33.2275862 L55.6246364,33.2275862 Z" id="Fill-1" fill-opacity="0.5" fill="#00265F" mask="url(#mask-2)"></path>
            </g>
        </g>
    </g>
</svg>