	  
	  <!-- By Sam Herbert (@sherb), for everyone. More @ http://goo.gl/7AJzbL -->
<svg width="80" height="80" viewBox="0 0 62 62" xmlns="http://www.w3.org/2000/svg">
    <g fill="none" fill-rule="evenodd">
        <g transform="translate(2 1)">
            <circle cx="42.601" cy="11.462" r="5" fill-opacity="1" fill="#F3F0EC">
                <animate attributeName="fill-opacity"
                         begin="0s" dur="1.3s"
                         values="1;0.8;0.6;0.4;0.2;0;0;0" calcMode="linear"
                         repeatCount="indefinite" />
            </circle>
            <circle cx="49.063" cy="27.063" r="5" fill-opacity="0" fill="#F3F0EC">
                <animate attributeName="fill-opacity"
                         begin="0s" dur="1.3s"
                         values="0;1;0.8;0.6;0.4;0.2;0;0" calcMode="linear"
                         repeatCount="indefinite" />
            </circle>
            <circle cx="42.601" cy="42.663" r="5" fill-opacity="0" fill="#F3F0EC">
                <animate attributeName="fill-opacity"
                         begin="0s" dur="1.3s"
                         values="0;0;1;0.8;0.6;0.4;0.2;0" calcMode="linear"
                         repeatCount="indefinite" />
            </circle>
            <circle cx="27" cy="49.125" r="5" fill-opacity="0" fill="#F3F0EC">
                <animate attributeName="fill-opacity"
                         begin="0s" dur="1.3s"
                         values="0;0;0;1;0.8;0.6;0.4;0.2" calcMode="linear"
                         repeatCount="indefinite" />
            </circle>
            <circle cx="11.399" cy="42.663" r="5" fill-opacity="0" fill="#F3F0EC">
                <animate attributeName="fill-opacity"
                         begin="0s" dur="1.3s"
                         values="0.2;0;0;0;1;0.8;0.6;0.4" calcMode="linear"
                         repeatCount="indefinite" />
            </circle>
            <circle cx="4.938" cy="27.063" r="5" fill-opacity="0" fill="#F3F0EC">
                <animate attributeName="fill-opacity"
                         begin="0s" dur="1.3s"
                         values="0.4;0.2;0;0;0;1;0.8;0.6" calcMode="linear"
                         repeatCount="indefinite" />
            </circle>
            <circle cx="11.399" cy="11.462" r="5" fill-opacity="0" fill="#F3F0EC">
                <animate attributeName="fill-opacity"
                         begin="0s" dur="1.3s"
                         values="0.6;0.4;0.2;0;0;0;1;0.8" calcMode="linear"
                         repeatCount="indefinite" />
            </circle>
            <circle cx="27" cy="5" r="5" fill-opacity="0" fill="#F3F0EC">
                <animate attributeName="fill-opacity"
                         begin="0s" dur="1.3s"
                         values="0.8;0.6;0.4;0.2;0;0;0;1" calcMode="linear"
                         repeatCount="indefinite" />
            </circle>
        </g>
    </g>
</svg>
