<?xml version="1.0" encoding="UTF-8"?>
<svg width="43px" height="37px" viewBox="0 0 43 37" version="1.1" xmlns="http://www.w3.org/2000/svg" xmlns:xlink="http://www.w3.org/1999/xlink">
    <!-- Generator: Sketch 49.1 (51147) - http://www.bohemiancoding.com/sketch -->
    <title>Small luggage pictogram</title>
    <desc>Created with Sketch.</desc>
    <defs></defs>
    <g id="Page-1" stroke="none" stroke-width="1" fill="none" fill-rule="evenodd">
        <g id="Desktop-V2" transform="translate(-512.000000, -998.000000)" fill="#092A5E">
            <g id="Flights-ancillaries" transform="translate(0.000000, 245.000000)">
                <g id="Group-3" transform="translate(179.000000, 713.000000)">
                    <g id="Group-12" transform="translate(103.000000, 21.000000)">
                        <g id="Group-13" transform="translate(23.000000, 19.000000)">
                            <g id="15KG-luggage" transform="translate(202.000000, 0.000000)">
                                <g id="15kg-Flat" transform="translate(5.729730, 0.000000)">
                                    <g id="luggage">
                                        <path d="M32.1428571,35.1122449 L9.85714286,35.1122449 L9.85714286,35.4897959 C9.85714286,36.3204082 9.08571429,37 8.14285714,37 C7.2,37 6.42857143,36.3204082 6.42857143,35.4897959 L6.42857143,35.1122449 L5.14285714,35.1122449 C2.31428571,35.1122449 0,33.0734694 0,30.5816327 L0,10.1938776 C0,7.70204082 2.31428571,5.66326531 5.14285714,5.66326531 L12.8571429,5.66326531 L12.8571429,1.51020408 C12.8571429,0.679591837 13.6285714,0 14.5714286,0 L27.4285714,0 C28.3714286,0 29.1428571,0.679591837 29.1428571,1.51020408 L29.1428571,5.66326531 L36.8571429,5.66326531 C39.6857143,5.66326531 42,7.70204082 42,10.1938776 L42,30.5816327 C42,33.0734694 39.6857143,35.1122449 36.8571429,35.1122449 L35.5714286,35.1122449 L35.5714286,35.4897959 C35.5714286,36.3204082 34.8,37 33.8571429,37 C32.9142857,37 32.1428571,36.3204082 32.1428571,35.4897959 L32.1428571,35.1122449 Z M32.1428571,8.68367347 L9.85714286,8.68367347 L9.85714286,32.0918367 L32.1428571,32.0918367 L32.1428571,8.68367347 Z M35.5714286,8.68367347 L35.5714286,32.0918367 L36.8571429,32.0918367 C37.8,32.0918367 38.5714286,31.4122449 38.5714286,30.5816327 L38.5714286,10.1938776 C38.5714286,9.36326531 37.8,8.68367347 36.8571429,8.68367347 L35.5714286,8.68367347 Z M6.42857143,8.68367347 L5.14285714,8.68367347 C4.2,8.68367347 3.42857143,9.36326531 3.42857143,10.1938776 L3.42857143,30.5816327 C3.42857143,31.4122449 4.2,32.0918367 5.14285714,32.0918367 L6.42857143,32.0918367 L6.42857143,8.68367347 Z M16.2857143,5.66326531 L25.7142857,5.66326531 L25.7142857,3.02040816 L16.2857143,3.02040816 L16.2857143,5.66326531 Z" id="Shape" fill-rule="nonzero"></path>
                                    </g>
                                </g>
                            </g>
                        </g>
                    </g>
                </g>
            </g>
        </g>
    </g>
</svg>