<?xml version="1.0" encoding="UTF-8"?>
<svg width="46px" height="42px" viewBox="0 0 46 42" version="1.1" xmlns="http://www.w3.org/2000/svg" xmlns:xlink="http://www.w3.org/1999/xlink">
    <!-- Generator: Sketch 49.1 (51147) - http://www.bohemiancoding.com/sketch -->
    <title>Medium luggage pictogram</title>
    <desc>Created with Sketch.</desc>
    <defs></defs>
    <g id="Page-1" stroke="none" stroke-width="1" fill="none" fill-rule="evenodd">
        <g id="Desktop-V2" transform="translate(-817.000000, -995.000000)">
            <g id="Flights-ancillaries" transform="translate(0.000000, 245.000000)">
                <g id="Group-3" transform="translate(179.000000, 713.000000)">
                    <g id="Group-12" transform="translate(103.000000, 21.000000)">
                        <g id="Group-14" transform="translate(348.000000, 16.000000)">
                            <g id="20KG-luggage-" transform="translate(181.000000, 0.000000)">
                                <g id="20kg-Flat-" transform="translate(6.270270, 0.000000)">
                                    <g id="luggage-plus20kg">
                                        <path d="M37.1305419,29.2241379 L34.6366995,29.2241379 L34.6366995,26.8965517 C34.6366995,26.0431034 33.8885468,25.3448276 32.9741379,25.3448276 C32.0597291,25.3448276 31.3115764,26.0431034 31.3115764,26.8965517 L31.3115764,29.2241379 L28.817734,29.2241379 C27.9033251,29.2241379 27.1551724,29.9224138 27.1551724,30.7758621 C27.1551724,31.6293103 27.9033251,32.3275862 28.817734,32.3275862 L31.3115764,32.3275862 L31.3115764,34.6551724 C31.3115764,35.5086207 32.0597291,36.2068966 32.9741379,36.2068966 C33.8885468,36.2068966 34.6366995,35.5086207 34.6366995,34.6551724 L34.6366995,32.3275862 L37.1305419,32.3275862 C38.0449507,32.3275862 38.7931034,31.6293103 38.7931034,30.7758621 C38.7931034,29.9224138 38.0449507,29.2241379 37.1305419,29.2241379 Z" id="Shape" fill="#219ED9" fill-rule="nonzero"></path>
                                        <path d="M40.8333333,22.2055556 L40.8333333,10.5 C40.8333333,7.93333333 38.5833333,5.83333333 35.8333333,5.83333333 L28.3333333,5.83333333 L28.3333333,1.55555556 C28.3333333,0.7 27.5833333,0 26.6666667,0 L14.1666667,0 C13.25,0 12.5,0.7 12.5,1.55555556 L12.5,5.83333333 L5,5.83333333 C2.25,5.83333333 0,7.93333333 0,10.5 L0,31.5 C0,34.0666667 2.25,36.1666667 5,36.1666667 L6.25,36.1666667 L6.25,36.5555556 C6.25,37.4111111 7,38.1111111 7.91666667,38.1111111 C8.83333333,38.1111111 9.58333333,37.4111111 9.58333333,36.5555556 L9.58333333,36.1666667 L22.3333333,36.1666667 C24.375,39.6277778 28.375,42 32.9166667,42 C39.5833333,42 45,36.9444444 45,30.7222222 C45,27.3388889 43.375,24.2666667 40.8333333,22.2055556 Z M6.25,33.0555556 L5,33.0555556 C4.08333333,33.0555556 3.33333333,32.3555556 3.33333333,31.5 L3.33333333,10.5 C3.33333333,9.64444444 4.08333333,8.94444444 5,8.94444444 L6.25,8.94444444 L6.25,33.0555556 Z M34.5833333,8.94444444 L35.8333333,8.94444444 C36.75,8.94444444 37.5,9.64444444 37.5,10.5 L37.5,20.3 C36.5833333,19.95 35.5833333,19.7166667 34.5833333,19.5611111 L34.5833333,8.94444444 Z M15.8333333,3.11111111 L25,3.11111111 L25,5.83333333 L15.8333333,5.83333333 L15.8333333,3.11111111 Z M21.0833333,33.0555556 C21.0833333,33.0555556 21.0833333,33.0555556 21.0833333,33.0555556 L9.58333333,33.0555556 L9.58333333,8.94444444 L31.25,8.94444444 L31.25,19.5611111 C25.375,20.3 20.8333333,25.0055556 20.8333333,30.7222222 C20.8333333,31.5388889 20.9166667,32.3166667 21.0833333,33.0555556 Z M32.9166667,38.8888889 C28.0833333,38.8888889 24.1666667,35.2333333 24.1666667,30.7222222 C24.1666667,26.2111111 28.0833333,22.5555556 32.9166667,22.5555556 C37.75,22.5555556 41.6666667,26.2111111 41.6666667,30.7222222 C41.6666667,35.2333333 37.75,38.8888889 32.9166667,38.8888889 Z" id="Shape" fill="#092A5E" fill-rule="nonzero"></path>
                                    </g>
                                </g>
                            </g>
                        </g>
                    </g>
                </g>
            </g>
        </g>
    </g>
</svg>