<?xml version="1.0" encoding="UTF-8"?>
<svg width="90px" height="80px" viewBox="0 0 90 80" version="1.1" xmlns="http://www.w3.org/2000/svg" xmlns:xlink="http://www.w3.org/1999/xlink">
    <!-- Generator: Sketch 47 (45396) - http://www.bohemiancoding.com/sketch -->
    <title>Extra legroom seats</title>
    <desc>Created with Sketch.</desc>
    <defs></defs>
    <g id="Symbols" stroke="none" stroke-width="1" fill="none" fill-rule="evenodd">
        <g id="Extra-legroom-seats" fill-rule="nonzero">
            <g id="seat_extra-space">
                <path d="M43.9659091,73.4693878 L53.0909091,73.4693878 C54.9159091,73.4693878 56.4090909,74.9387755 56.4090909,76.7346939 C56.4090909,78.5306122 54.9159091,80 53.0909091,80 L28.2045455,80 C26.3795455,80 24.8863636,78.5306122 24.8863636,76.7346939 C24.8863636,74.9387755 26.3795455,73.4693878 28.2045455,73.4693878 L37.3295455,73.4693878 L37.3295455,63.6734694 L29.0340909,63.6734694 C25.7159091,63.6734694 22.6465909,62.0408163 20.8215909,59.3469388 L1.74204545,31.5918367 C0.580681818,29.9591837 0,28.0816327 0,26.122449 L0,9.79591837 C0,4.40816327 4.47954545,0 9.95454545,0 C15.4295455,0 19.9090909,4.40816327 19.9090909,9.79591837 L19.9090909,23.1020408 L26.4625,32.6530612 L55.5795455,32.6530612 C57.4045455,32.6530612 58.8977273,34.122449 58.8977273,35.9183673 C58.8977273,37.7142857 57.4045455,39.1836735 55.5795455,39.1836735 L30.9420455,39.1836735 L34.3431818,44.0816327 L63.0454545,44.0816327 C68.5204545,44.0816327 73,48.4897959 73,53.877551 C73,59.2653061 68.5204545,63.6734694 63.0454545,63.6734694 L43.9659091,63.6734694 L43.9659091,73.4693878 L43.9659091,73.4693878 Z M18.4159091,32.6530612 L13.2727273,25.1428571 L13.2727273,9.79591837 C13.2727273,8 11.7795455,6.53061224 9.95454545,6.53061224 C8.12954545,6.53061224 6.63636364,8 6.63636364,9.79591837 L6.63636364,26.122449 C6.63636364,26.7755102 6.80227273,27.4285714 7.21704545,27.9183673 L10.4522727,32.6530612 L18.4159091,32.6530612 L18.4159091,32.6530612 Z M22.9784091,39.1836735 L14.9318182,39.1836735 L26.2965909,55.6734694 C26.8772727,56.5714286 27.9556818,57.1428571 29.0340909,57.1428571 L63.0454545,57.1428571 C64.8704545,57.1428571 66.3636364,55.6734694 66.3636364,53.877551 C66.3636364,52.0816327 64.8704545,50.6122449 63.0454545,50.6122449 L30.7761364,50.6122449 L22.9784091,39.1836735 Z" id="Shape" fill="#082A5E"></path>
                <path d="M82.3019213,48.5329068 C81.9432754,48.2001828 81.9432754,47.6297989 82.3019213,47.249543 C82.6605672,46.916819 83.2753888,46.916819 83.6852699,47.249543 L89.7310156,52.8583181 C90.0896615,53.191042 90.0896615,53.761426 89.7310156,54.1416819 L83.6852699,59.750457 C83.326624,60.083181 82.7118024,60.083181 82.3019213,59.750457 C81.8920403,59.4177331 81.9432754,58.8473492 82.3019213,58.4670932 L86.7081427,54.3793419 L76.9734675,54.3793419 C76.4611162,54.3793419 76,53.9990859 76,53.476234 C76,52.9533821 76.4098811,52.5731261 76.9734675,52.5731261 L86.7081427,52.5731261 L82.3019213,48.5329068 Z" id="Shape" fill="#219ED9"></path>
            </g>
        </g>
    </g>
</svg>